…
Next, let’s analyze which bike types are preferred by casual riders and
annual members.

``` r
# Determine preferred bike type for each user type
bike_pref <- divvy %>%
  group_by(semi_annual, quarterly, monthly, member_casual, rideable_type) %>%
  summarise(bike_count = n(), .groups = "drop")

# Preview the data frame
print(bike_pref, n = 50)
```

    ## # A tibble: 60 × 6
    ##    semi_annual quarterly monthly  member_casual rideable_type bike_count
    ##    <chr>       <chr>     <chr>    <chr>         <chr>              <int>
    ##  1 2022 H1     2022 Q 2  2022 Jun casual        classic_bike      169446
    ##  2 2022 H1     2022 Q 2  2022 Jun casual        docked_bike        30210
    ##  3 2022 H1     2022 Q 2  2022 Jun casual        electric_bike      92408
    ##  4 2022 H1     2022 Q 2  2022 Jun member        classic_bike      236560
    ##  5 2022 H1     2022 Q 2  2022 Jun member        electric_bike      91719
    ##  6 2022 H2     2022 Q 3  2022 Aug casual        classic_bike      128307
    ##  7 2022 H2     2022 Q 3  2022 Aug casual        docked_bike        25888
    ##  8 2022 H2     2022 Q 3  2022 Aug casual        electric_bike     115898
    ##  9 2022 H2     2022 Q 3  2022 Aug member        classic_bike      215326
    ## 10 2022 H2     2022 Q 3  2022 Aug member        electric_bike     119902
    ## 11 2022 H2     2022 Q 3  2022 Jul casual        classic_bike      155676
    ## 12 2022 H2     2022 Q 3  2022 Jul casual        docked_bike        30599
    ## 13 2022 H2     2022 Q 3  2022 Jul casual        electric_bike     125400
    ## 14 2022 H2     2022 Q 3  2022 Jul member        classic_bike      216997
    ## 15 2022 H2     2022 Q 3  2022 Jul member        electric_bike     114002
    ## 16 2022 H2     2022 Q 3  2022 Sep casual        classic_bike      105078
    ## 17 2022 H2     2022 Q 3  2022 Sep casual        docked_bike        19488
    ## 18 2022 H2     2022 Q 3  2022 Sep casual        electric_bike      96346
    ## 19 2022 H2     2022 Q 3  2022 Sep member        classic_bike      200668
    ## 20 2022 H2     2022 Q 3  2022 Sep member        electric_bike     113560
    ## 21 2022 H2     2022 Q 4  2022 Dec casual        classic_bike       12600
    ## 22 2022 H2     2022 Q 4  2022 Dec casual        docked_bike         1872
    ## 23 2022 H2     2022 Q 4  2022 Dec casual        electric_bike      17033
    ## 24 2022 H2     2022 Q 4  2022 Dec member        classic_bike       60670
    ## 25 2022 H2     2022 Q 4  2022 Dec member        electric_bike      43225
    ## 26 2022 H2     2022 Q 4  2022 Nov casual        classic_bike       32953
    ## 27 2022 H2     2022 Q 4  2022 Nov casual        docked_bike         5794
    ## 28 2022 H2     2022 Q 4  2022 Nov casual        electric_bike      34808
    ## 29 2022 H2     2022 Q 4  2022 Nov member        classic_bike      111503
    ## 30 2022 H2     2022 Q 4  2022 Nov member        electric_bike      70734
    ## 31 2022 H2     2022 Q 4  2022 Oct casual        classic_bike       61403
    ## 32 2022 H2     2022 Q 4  2022 Oct casual        docked_bike        12396
    ## 33 2022 H2     2022 Q 4  2022 Oct casual        electric_bike      77525
    ## 34 2022 H2     2022 Q 4  2022 Oct member        classic_bike      151888
    ## 35 2022 H2     2022 Q 4  2022 Oct member        electric_bike     111056
    ## 36 2023 H1     2023 Q 1  2023 Feb casual        classic_bike       15446
    ## 37 2023 H1     2023 Q 1  2023 Feb casual        docked_bike         2151
    ## 38 2023 H1     2023 Q 1  2023 Feb casual        electric_bike      15179
    ## 39 2023 H1     2023 Q 1  2023 Feb member        classic_bike       74223
    ## 40 2023 H1     2023 Q 1  2023 Feb member        electric_bike      42560
    ## 41 2023 H1     2023 Q 1  2023 Jan casual        classic_bike       13860
    ## 42 2023 H1     2023 Q 1  2023 Jan casual        docked_bike         1682
    ## 43 2023 H1     2023 Q 1  2023 Jan casual        electric_bike      14079
    ## 44 2023 H1     2023 Q 1  2023 Jan member        classic_bike       76359
    ## 45 2023 H1     2023 Q 1  2023 Jan member        electric_bike      42304
    ## 46 2023 H1     2023 Q 1  2023 Mar casual        classic_bike       19380
    ## 47 2023 H1     2023 Q 1  2023 Mar casual        docked_bike         2944
    ## 48 2023 H1     2023 Q 1  2023 Mar casual        electric_bike      24468
    ## 49 2023 H1     2023 Q 1  2023 Mar member        classic_bike       87596
    ## 50 2023 H1     2023 Q 1  2023 Mar member        electric_bike      66059
    ## # ℹ 10 more rows
…
